{
  "defaultSeverity": "warning",
  "rules": {
    "arrow-return-shorthand": false,
    "await-promise": true,
    "no-boolean-literal-compare": false,
    "no-floating-promises": false,
    "no-misused-new": true,
    "no-unbound-method": false,
    "no-unnecessary-initializer": true,
    "no-unnecessary-qualifier": false,
    "no-unsafe-any": false,
    "prefer-function-over-method": false,
    "space-before-function-paren": [true, "never"],
    "prefer-method-signature": true,
    "strict-type-predicates": false,
    "adjacent-overload-signatures": false,
    "align": [
      false
    ],
    "array-type": [
      false
    ],
    "arrow-parens": false,
    "ban": false,
    "callable-types": true,
    "class-name": true,
    "comment-format": [
      false
    ],
    "completed-docs": [
      false
    ],
    "curly": true,
    "cyclomatic-complexity": [
      false
    ],
    "eofline": false,
    "file-header": [
      false
    ],
    "forin": false,
    "import-blacklist": false,
    "import-spacing": true,
    "indent": [
      true,
      "spaces",
      4
    ],
    "interface-name": false,
    "interface-over-type-literal": false,
    "jsdoc-format": false,
    "label-position": true,
    "linebreak-style": [
      true,
      "LF"
    ],
    "max-classes-per-file": [
      false
    ],
    "max-file-line-count": [
      false
    ],
    "max-line-length": [
      true,
      120
    ],
    "member-ordering": [
      false
    ],
    "new-parens": true,
    "no-angle-bracket-type-assertion": false,
    "no-any": false,
    "no-arg": true,
    "no-bitwise": false,
    "no-conditional-assignment": true,
    "no-consecutive-blank-lines": [
      false
    ],
    "no-console": [
      false,
      "debug",
      "info",
      "log",
      "time",
      "timeEnd",
      "trace"
    ],
    "no-construct": true,
    "no-debugger": true,
    "no-default-export": false,
    "no-duplicate-variable": true,
    "no-empty": false,
    "no-empty-interface": true,
    "no-eval": false,
    "no-for-in-array": false,
    "no-inferrable-types": [
      false
    ],
    "no-inferred-empty-object-type": false,
    "no-internal-module": false,
    "no-invalid-this": true,
    "no-magic-numbers": false,
    "no-mergeable-namespace": false,
    "no-namespace": false,
    "no-null-keyword": false,
    "no-parameter-properties": false,
    "no-reference": true,
    "no-require-imports": true,
    "no-shadowed-variable": true,
    "no-sparse-arrays": true,
    "no-string-literal": true,
    "no-string-throw": false,
    "no-switch-case-fall-through": true,
    "no-trailing-whitespace": true,
    "no-unsafe-finally": true,
    "no-unused-expression": true,
    "no-unused-variable": true,
    "no-var-keyword": false,
    "no-var-requires": true,
    "no-void-expression": false,
    "object-literal-key-quotes": [
      false,
      "as-needed"
    ],
    "object-literal-shorthand": false,
    "object-literal-sort-keys": false,
    "one-line": [
      true,
      "check-open-brace"
    ],
    "one-variable-per-declaration": [
      true
    ],
    "only-arrow-functions": [
      false
    ],
    "ordered-imports": [
      false
    ],
    "prefer-const": true,
    "prefer-for-of": false,
    "promise-function-async": true,
    "quotemark": [
      true,
      "single",
      "jsx-double"
    ],
    "radix": false,
    "restrict-plus-operands": false,
    "semicolon": [
      true,
      "ignore-bound-class-methods",
      "ignore-intefaces"
    ],
    "strict-boolean-expressions": false,
    "switch-default": false,
    "trailing-comma": [
      true,
      {
        "singleline": "never",
        "multiline": "never"
      }
    ],
    "triple-equals": [
      true,
      "allow-null-check"
    ],
    "typedef": [
      true,
      "parameter",
      "property-declaration",
      "member-variable-declaration"
    ],
    "typedef-whitespace": [
      true,
      {
        "call-signature": "nospace",
        "index-signature": "nospace",
        "parameter": "nospace",
        "property-declaration": "nospace",
        "variable-declaration": "nospace"
      }
    ],
    "typeof-compare": true,
    "unified-signatures": true,
    "use-isnan": true,
    "variable-name": false,
    "whitespace": [
      true,
      "check-decl",
      "check-operator",
      "check-preblock",
      "check-branch",
      "check-module",
      "check-separator",
      "check-type-operator",
      "check-type"
    ]
  }
}
